<?xml version="1.0" encoding="UTF-8"?>
<svg xmlns="http://www.w3.org/2000/svg" xmlns:xlink="http://www.w3.org/1999/xlink" width="10pt" height="10pt" viewBox="0 0 10 10" version="1.1">
<g id="surface1">
<path style=" stroke:none;fill-rule:nonzero;fill:rgb(44.705882%,74.509804%,26.666667%);fill-opacity:1;" d="M 5 0.15625 C 2.324219 0.15625 0.15625 2.324219 0.15625 5 C 0.15625 7.675781 2.324219 9.84375 5 9.84375 C 7.675781 9.84375 9.84375 7.675781 9.84375 5 C 9.84375 2.324219 7.675781 0.15625 5 0.15625 Z M 5 8.90625 C 2.839844 8.90625 1.09375 7.160156 1.09375 5 C 1.09375 2.84375 2.839844 1.09375 5 1.09375 C 7.15625 1.09375 8.90625 2.839844 8.90625 5 C 8.90625 7.160156 7.160156 8.90625 5 8.90625 Z M 7.09375 3.921875 C 7.09375 5.230469 5.679688 5.25 5.679688 5.734375 L 5.679688 5.859375 C 5.679688 5.988281 5.574219 6.09375 5.445312 6.09375 L 4.554688 6.09375 C 4.425781 6.09375 4.320312 5.988281 4.320312 5.859375 L 4.320312 5.691406 C 4.320312 4.992188 4.847656 4.714844 5.25 4.488281 C 5.59375 4.296875 5.800781 4.164062 5.800781 3.910156 C 5.800781 3.574219 5.371094 3.351562 5.023438 3.351562 C 4.574219 3.351562 4.363281 3.566406 4.070312 3.9375 C 3.988281 4.035156 3.84375 4.054688 3.742188 3.976562 L 3.199219 3.566406 C 3.101562 3.488281 3.078125 3.347656 3.148438 3.246094 C 3.609375 2.566406 4.199219 2.1875 5.113281 2.1875 C 6.070312 2.1875 7.09375 2.9375 7.09375 3.921875 Z M 5.820312 7.1875 C 5.820312 7.640625 5.453125 8.007812 5 8.007812 C 4.546875 8.007812 4.179688 7.640625 4.179688 7.1875 C 4.179688 6.734375 4.546875 6.367188 5 6.367188 C 5.453125 6.367188 5.820312 6.734375 5.820312 7.1875 Z M 5.820312 7.1875 "/>
</g>
</svg>
